Charge_in_e  Mass_in_me  Density_in_1E20cc  T_in_KeV  p-index
    -1           1             1             1          3
     1          1836           1             1          3
     1          1836.1         -1.0            1.0          3
    12         51197.6         -0.0833333      1.0          3
    22        132514.4         -0.0454545      1.0          3
     1           15            0.00           0.01         3
